
{"comments":[],"workout_items":[{"id":217424599,"workout_id":49819934,"name":"Deadlift ","info":"• 4@6\n• 4@7\n• 4@8\n• -5% x 4 reps x 2 sets","result":"","is_circuit":false,"state":"pending","selected_exercises":[],"linked":false,"position":1,"assessment_id":null,"created_at":"2020-01-28T17:29:06.532Z","attachments":[],"exercise_id":null,"request_video":false},{"id":217424600,"workout_id":49819934,"name":"Banded Bench Press","info":"• 3@7\n• 3@8\n• 3@9\n• 80% e1RM x 3 reps x 2 sets","result":"","is_circuit":false,"state":"pending","selected_exercises":[],"linked":false,"position":2,"assessment_id":null,"created_at":"2020-01-28T17:29:06.540Z","attachments":[],"exercise_id":null,"request_video":false},{"id":217424601,"workout_id":49819934,"name":"Belt Squat","info":"• 8@7\n• 8@8\n• 8@9 x 2 sets","result":"","is_circuit":false,"state":"pending","selected_exercises":[],"linked":false,"position":3,"assessment_id":null,"created_at":"2020-01-28T17:29:06.545Z","attachments":[],"exercise_id":2967,"request_video":false},{"id":217424602,"workout_id":49819935,"name":"SSB","info":"• 4@6\n• 4@7\n• 4@8\n• -5% x 4 reps x 2 sets","result":"","is_circuit":false,"state":"pending","selected_exercises":[],"linked":false,"position":1,"assessment_id":null,"created_at":"2020-01-28T17:29:06.614Z","attachments":[],"exercise_id":null,"request_video":false},{"id":217424603,"workout_id":49819935,"name":"Close Grip Bench Press","info":"• 4@6\n• 4@7\n• 4@8\n• -5% x 4 reps x 2 sets","result":"","is_circuit":false,"state":"pending","selected_exercises":[],"linked":false,"position":2,"assessment_id":null,"created_at":"2020-01-28T17:29:06.619Z","attachments":[],"exercise_id":6526,"request_video":false},{"id":217424604,"workout_id":49819935,"name":"3 Count Pause Bench Press","info":"• 8@7\n• 8@8\n• 8@9 x 2 sets","result":"","is_circuit":false,"state":"pending","selected_exercises":[],"linked":false,"position":3,"assessment_id":null,"created_at":"2020-01-28T17:29:06.624Z","attachments":[],"exercise_id":null,"request_video":false},{"id":217424608,"workout_id":49819938,"name":"2 Count Pause Deadlift","info":"• 4@6\n• 4@7\n• 4@8\n• -5% x 4 reps x 2 sets","result":"","is_circuit":false,"state":"pending","selected_exercises":[],"linked":false,"position":1,"assessment_id":null,"created_at":"2020-01-28T17:29:06.813Z","attachments":[],"exercise_id":null,"request_video":false},{"id":217424609,"workout_id":49819938,"name":"Touch and Go Bench Press","info":"• 75% e1RM x 5 reps x 5 sets","result":"","is_circuit":false,"state":"pending","selected_exercises":[],"linked":false,"position":2,"assessment_id":null,"created_at":"2020-01-28T17:29:06.822Z","attachments":[],"exercise_id":null,"request_video":false},{"id":217424610,"workout_id":49819938,"name":"3-1-0 Tempo RDL","info":"• 8@7\n• 8@8\n• 8@9 x 2 sets","result":"","is_circuit":false,"state":"pending","selected_exercises":[],"linked":false,"position":3,"assessment_id":null,"created_at":"2020-01-28T17:29:06.826Z","attachments":[],"exercise_id":null,"request_video":false},{"id":217425194,"workout_id":49820091,"name":"Squat","info":"• 4@6\n• 4@7\n• 4@8\n• -5% x 4 reps x 2 sets","result":"","is_circuit":false,"state":"pending","selected_exercises":[],"linked":false,"position":1,"assessment_id":null,"created_at":"2020-01-28T17:32:06.595Z","attachments":[],"exercise_id":null,"request_video":false},{"id":217425195,"workout_id":49820091,"name":"1 Count Pause Bench Press","info":"• 4@6\n• 4@7\n• 4@8\n• -5% x 4 reps x 2 sets","result":"","is_circuit":false,"state":"pending","selected_exercises":[],"linked":false,"position":2,"assessment_id":null,"created_at":"2020-01-28T17:32:06.602Z","attachments":[],"exercise_id":null,"request_video":false},{"id":217425196,"workout_id":49820091,"name":"Feet Up Bench Press","info":"• 8@7\n• 8@8\n• 8@9","result":"","is_circuit":false,"state":"pending","selected_exercises":[],"linked":false,"position":3,"assessment_id":null,"created_at":"2020-01-28T17:32:06.606Z","attachments":[],"exercise_id":null,"request_video":false},{"id":217425184,"workout_id":49820088,"name":"Deadlift ","info":"• 4@6\n• 4@7\n• 4@8\n• -5% x 4 reps x 2 sets","result":"","is_circuit":false,"state":"pending","selected_exercises":[],"linked":false,"position":1,"assessment_id":null,"created_at":"2020-01-28T17:32:06.518Z","attachments":[],"exercise_id":null,"request_video":false},{"id":217425186,"workout_id":49820088,"name":"Banded Bench Press","info":"• 3@7\n• 3@8\n• 3@9\n• 80% e1RM x 3 reps x 2 sets","result":"","is_circuit":false,"state":"pending","selected_exercises":[],"linked":false,"position":2,"assessment_id":null,"created_at":"2020-01-28T17:32:06.524Z","attachments":[],"exercise_id":null,"request_video":false},{"id":217425187,"workout_id":49820088,"name":"Belt Squat","info":"• 8@7\n• 8@8\n• 8@9 x 2 sets","result":"","is_circuit":false,"state":"pending","selected_exercises":[],"linked":false,"position":3,"assessment_id":null,"created_at":"2020-01-28T17:32:06.527Z","attachments":[],"exercise_id":2967,"request_video":false}],"workouts":[{"id":49819933,"due":"2020-01-29","short_description":"\u003cp class='rest-day-title'\u003e\u003cb\u003e\u003cu\u003eRest Day\u003c/u\u003e\u003c/b\u003e\u003c/p\u003e","created_at":"2020-01-28T17:29:06.524Z","updated_at":"2020-01-28T17:29:06.524Z","title":"","state":"pending","rest_day":true,"rest_day_instructions":"","warmup":null,"warmup_selected_exercises":[],"cooldown_selected_exercises":[],"cooldown":null,"position":null,"order":1,"uuid":"895d75cb-0eba-41d6-9c9d-da3367cf0896","program_name":null,"hidden":false,"client_id":159147,"comment_ids":[],"note_id":null,"program_id":null,"workout_item_ids":[]},{"id":49819934,"due":"2020-01-30","short_description":"\u003cp class='name-and-info'\u003eA) Deadlift \u003cbr/\u003eB) Banded Bench Press\u003cbr/\u003eC) Belt Squat\u003cbr/\u003e\u003c/p\u003e","created_at":"2020-01-28T17:29:06.525Z","updated_at":"2020-01-28T17:30:58.877Z","title":"","state":"pending","rest_day":false,"rest_day_instructions":"","warmup":null,"warmup_selected_exercises":[],"cooldown_selected_exercises":[],"cooldown":null,"position":null,"order":1,"uuid":"2c673628-b201-4814-b655-03eef1113707","program_name":null,"hidden":false,"client_id":159147,"comment_ids":[],"note_id":null,"program_id":null,"workout_item_ids":[217424599,217424600,217424601]},{"id":49819936,"due":"2020-01-31","short_description":"\u003cp class='rest-day-title'\u003e\u003cb\u003e\u003cu\u003eRest Day\u003c/u\u003e\u003c/b\u003e\u003c/p\u003e","created_at":"2020-01-28T17:29:06.607Z","updated_at":"2020-01-28T17:29:06.607Z","title":"","state":"pending","rest_day":true,"rest_day_instructions":"","warmup":null,"warmup_selected_exercises":[],"cooldown_selected_exercises":[],"cooldown":null,"position":null,"order":1,"uuid":"7d12ca9a-1295-48fa-bf16-780cf1c42b5e","program_name":null,"hidden":false,"client_id":159147,"comment_ids":[],"note_id":null,"program_id":null,"workout_item_ids":[]},{"id":49819935,"due":"2020-02-01","short_description":"\u003cp class='name-and-info'\u003eA) SSB\u003cbr/\u003eB) Close Grip Bench Press\u003cbr/\u003eC) 3 Count Pause Bench Press\u003cbr/\u003e\u003c/p\u003e","created_at":"2020-01-28T17:29:06.604Z","updated_at":"2020-01-28T17:31:08.837Z","title":"","state":"pending","rest_day":false,"rest_day_instructions":"","warmup":null,"warmup_selected_exercises":[],"cooldown_selected_exercises":[],"cooldown":null,"position":null,"order":1,"uuid":"2ca479ff-8602-46e6-b515-46196e83e3d1","program_name":null,"hidden":false,"client_id":159147,"comment_ids":[],"note_id":null,"program_id":null,"workout_item_ids":[217424602,217424603,217424604]},{"id":49819938,"due":"2020-02-02","short_description":"\u003cp class='name-and-info'\u003eA) 2 Count Pause Deadlift\u003cbr/\u003eB) Touch and Go Bench Press\u003cbr/\u003eC) 3-1-0 Tempo RDL\u003cbr/\u003e\u003c/p\u003e","created_at":"2020-01-28T17:29:06.806Z","updated_at":"2020-01-28T17:31:23.101Z","title":"","state":"pending","rest_day":false,"rest_day_instructions":"","warmup":null,"warmup_selected_exercises":[],"cooldown_selected_exercises":[],"cooldown":null,"position":null,"order":1,"uuid":"f0d78e0b-4284-4b56-8adf-6701fd67a84b","program_name":null,"hidden":false,"client_id":159147,"comment_ids":[],"note_id":null,"program_id":null,"workout_item_ids":[217424608,217424609,217424610]},{"id":49820085,"due":"2020-02-03","short_description":"\u003cp class='rest-day-title'\u003e\u003cb\u003e\u003cu\u003eRest Day\u003c/u\u003e\u003c/b\u003e\u003c/p\u003e","created_at":"2020-01-28T17:32:06.254Z","updated_at":"2020-01-28T17:32:06.254Z","title":"","state":"pending","rest_day":true,"rest_day_instructions":"","warmup":null,"warmup_selected_exercises":[],"cooldown_selected_exercises":[],"cooldown":null,"position":null,"order":1,"uuid":"77738af3-52d3-425f-aa75-7eceb5c960a0","program_name":null,"hidden":false,"client_id":159147,"comment_ids":[],"note_id":null,"program_id":null,"workout_item_ids":[]},{"id":49820091,"due":"2020-02-04","short_description":"\u003cp\u003e\u003cb\u003e\u003cu\u003edev 2 wk 3\u003c/u\u003e\u003c/b\u003e\u003c/p\u003e\u003cp class='name-and-info'\u003eA) Squat\u003cbr/\u003eB) 1 Count Pause Bench Press\u003cbr/\u003eC) Feet Up Bench Press\u003cbr/\u003e\u003c/p\u003e","created_at":"2020-01-28T17:32:06.589Z","updated_at":"2020-01-28T17:36:42.341Z","title":"dev 2 wk 3","state":"pending","rest_day":false,"rest_day_instructions":"","warmup":null,"warmup_selected_exercises":[],"cooldown_selected_exercises":[],"cooldown":null,"position":null,"order":1,"uuid":"80959c9e-7a2d-45a6-8d13-b95b2f3c060f","program_name":null,"hidden":false,"client_id":159147,"comment_ids":[],"note_id":null,"program_id":null,"workout_item_ids":[217425194,217425195,217425196]},{"id":49820087,"due":"2020-02-05","short_description":"\u003cp class='rest-day-title'\u003e\u003cb\u003e\u003cu\u003eRest Day\u003c/u\u003e\u003c/b\u003e\u003c/p\u003e","created_at":"2020-01-28T17:32:06.510Z","updated_at":"2020-01-28T17:32:06.510Z","title":"","state":"pending","rest_day":true,"rest_day_instructions":"","warmup":null,"warmup_selected_exercises":[],"cooldown_selected_exercises":[],"cooldown":null,"position":null,"order":1,"uuid":"fbf03ea8-91ff-4024-9c7f-5913bebc8061","program_name":null,"hidden":false,"client_id":159147,"comment_ids":[],"note_id":null,"program_id":null,"workout_item_ids":[]},{"id":49820088,"due":"2020-02-06","short_description":"\u003cp class='name-and-info'\u003e\u003c/p\u003e","created_at":"2020-01-28T17:32:06.513Z","updated_at":"2020-01-28T17:32:06.513Z","title":"","state":"pending","rest_day":false,"rest_day_instructions":"","warmup":null,"warmup_selected_exercises":[],"cooldown_selected_exercises":[],"cooldown":null,"position":null,"order":1,"uuid":"e2af11bc-87e9-4b61-9e92-30917ccded6a","program_name":null,"hidden":false,"client_id":159147,"comment_ids":[],"note_id":null,"program_id":null,"workout_item_ids":[217425184,217425186,217425187]},{"id":49820092,"due":"2020-02-07","short_description":"\u003cp class='rest-day-title'\u003e\u003cb\u003e\u003cu\u003eRest Day\u003c/u\u003e\u003c/b\u003e\u003c/p\u003e","created_at":"2020-01-28T17:32:06.591Z","updated_at":"2020-01-28T17:32:06.591Z","title":"","state":"pending","rest_day":true,"rest_day_instructions":"","warmup":null,"warmup_selected_exercises":[],"cooldown_selected_exercises":[],"cooldown":null,"position":null,"order":1,"uuid":"ae0ce437-1442-431b-94c1-40591e048c6c","program_name":null,"hidden":false,"client_id":159147,"comment_ids":[],"note_id":null,"program_id":null,"workout_item_ids":[]}],"meta":{"page":1,"total_pages":3,"per_page":10,"total_count":26}}
